Clase 5 Modelos
…
## # A tibble: 2 x 5
##   term            estimate std.error statistic  p.value
##   <chr>              <dbl>     <dbl>     <dbl>    <dbl>
## 1 (Intercept)         33.5      1.36     24.7  9.23e-40
## 2 TypeMississippi    -12.7      1.92     -6.60 3.83e- 9

Augment

Para predicciones y residuales del modelo

augment(Fit1)

## # A tibble: 84 x 8
##    uptake Type   .fitted .resid .std.resid   .hat .sigma  .cooksd
##     <dbl> <fct>    <dbl>  <dbl>      <dbl>  <dbl>  <dbl>    <dbl>
##  1   16   Quebec    33.5 -17.5      -2.02  0.0238   8.63 0.0497  
##  2   30.4 Quebec    33.5  -3.14     -0.362 0.0238   8.84 0.00160 
##  3   34.8 Quebec    33.5   1.26      0.145 0.0238   8.85 0.000255
##  4   37.2 Quebec    33.5   3.66      0.421 0.0238   8.84 0.00216 
##  5   35.3 Quebec    33.5   1.76      0.202 0.0238   8.85 0.000499
##  6   39.2 Quebec    33.5   5.66      0.651 0.0238   8.83 0.00517 
##  7   39.7 Quebec    33.5   6.16      0.709 0.0238   8.82 0.00612 
##  8   13.6 Quebec    33.5 -19.9      -2.30  0.0238   8.56 0.0642  
##  9   27.3 Quebec    33.5  -6.24     -0.719 0.0238   8.82 0.00630 
## 10   37.1 Quebec    33.5   3.56      0.409 0.0238   8.84 0.00204 
## # ... with 74 more rows
…
